{
    "business_hours": [
        {
            "open": 400,
            "close": 2400
        },
        {
            "open": 400,
            "close": 2400
        },
        {
            "open": 400,
            "close": 2400
        },
        {
            "open": 400,
            "close": 2400
        },
        {
            "open": 400,
            "close": 2200
        },
        {
            "open": 600,
            "close": 2000
        },
        {
            "open": 600,
            "close": 2000
        }
    ],
    "date_opened": "2005-12-25",
    "notes": [
        "Hours are ordered from Monday to Sunday, same as Python's Datetime"
    ]
}