{
    "Count": 5, 
    "Items": [
        {
            "class_date": {
                "S": "2023-10-15"
            }, 
            "class_time": {
                "S": "17:00"
            }, 
            "spots_taken": {
                "N": "3"
            }, 
            "location": {
                "S": "tiny"
            }, 
            "class_year": {
                "S": "2023"
            }
        }, 
        {
            "class_date": {
                "S": "2023-10-16"
            }, 
            "class_time": {
                "S": "17:00"
            }, 
            "spots_taken": {
                "N": "0"
            }, 
            "location": {
                "S": "small"
            }, 
            "class_year": {
                "S": "2023"
            }
        }, 
        {
            "class_date": {
                "S": "2023-10-17"
            }, 
            "class_time": {
                "S": "17:00"
            }, 
            "spots_taken": {
                "N": "8"
            }, 
            "location": {
                "S": "small"
            }, 
            "class_year": {
                "S": "2023"
            }
        }, 
        {
            "class_date": {
                "S": "2023-10-18"
            }, 
            "class_time": {
                "S": "17:00"
            }, 
            "spots_taken": {
                "N": "0"
            }, 
            "location": {
                "S": "medium"
            }, 
            "class_year": {
                "S": "2023"
            }
        }, 
        {
            "class_date": {
                "S": "2023-10-19"
            }, 
            "class_time": {
                "S": "17:00"
            }, 
            "spots_taken": {
                "N": "0"
            }, 
            "location": {
                "S": "medium"
            }, 
            "class_year": {
                "S": "2023"
            }
        }
    ], 
    "ScannedCount": 5, 
    "ConsumedCapacity": null
}
