[
    {
        "class_date": "2023-10-16",
        "reserve_position": ("0"),
        "signup_time": "2023-08-03 03:25:34",
        "username": "douglas.adams",
        "waitlist_position": ("1")
    },
    {
        "class_date": "2023-10-16",
        "reserve_position": ("1"),
        "signup_time": "2023-08-03 03:25:34",
        "username": "john.tolkein",
        "waitlist_position": ("0")
    },
    {
        "class_date": "2023-10-16",
        "reserve_position": ("2"),
        "signup_time": "2023-08-03 03:25:34",
        "username": "clive.lewis",
        "waitlist_position": ("0")
    },
    {
        "class_date": "2023-10-16",
        "reserve_position": ("3"),
        "signup_time": "2023-08-03 03:25:34",
        "username": "frank.herbert",
        "waitlist_position": ("0")
    },
    {
        "class_date": "2023-10-16",
        "reserve_position": ("4"),
        "signup_time": "2023-08-03 03:25:34",
        "username": "william.gibson",
        "waitlist_position": ("0")
    },
    {
        "class_date": "2023-10-16",
        "reserve_position": ("5"),
        "signup_time": "2023-08-03 03:25:34",
        "username": "orson.card",
        "waitlist_position": ("0")
    }
]