{
    "ResponseMetadata": {
        "HTTPHeaders": {
            "connection": "keep-alive",
            "content-length": "2",
            "content-type": "application/x-amz-json-1.0",
            "date": "Thu, 03 Aug 2023 03:00:52 GMT",
            "server": "Server",
            "x-amz-crc32": "2745614147",
            "x-amzn-requestid": "91BP7ET7Q2MJF2H537M59U3C7FVV4KQNSO5AEMVJF66Q9ASUAAJG"
        },
        "HTTPStatusCode": 200,
        "RequestId": "91BP7ET7Q2MJF2H537M59U3C7FVV4KQNSO5AEMVJF66Q9ASUAAJG",
        "RetryAttempts": 0
    }
}